EESchema Schematic File Version 4
EELAYER 30 0
EELAYER END
$Descr A4 11693 8268
encoding utf-8
Sheet 1 1
Title ""
Date ""
Rev ""
Comp ""
Comment1 ""
Comment2 ""
Comment3 ""
Comment4 ""
$EndDescr
Wire Wire Line
	2650 2950 2650 3100
Text GLabel 3250 2350 2    50   Input ~ 0
PUMP_PIN
Wire Wire Line
	2750 1350 2650 1350
Wire Wire Line
	2650 1350 2650 1450
Text GLabel 8200 1400 0    50   Input ~ 0
PUMP_PIN
$Comp
L Connector_Generic:Conn_01x03 J13
U 1 1 5FB00C3F
P 10150 1400
F 0 "J13" H 10230 1442 50  0000 L CNN
F 1 "PUMP_RELE_OUT" H 10230 1351 50  0000 L CNN
F 2 "Connector_JST:JST_XH_B3B-XH-A_1x03_P2.50mm_Vertical" H 10150 1400 50  0001 C CNN
F 3 "~" H 10150 1400 50  0001 C CNN
	1    10150 1400
	1    0    0    -1  
$EndComp
$Comp
L Isolator:PC817 U5
U 1 1 5FB01460
P 9100 1500
F 0 "U5" H 9100 1825 50  0000 C CNN
F 1 "PC817" H 9100 1734 50  0000 C CNN
F 2 "Package_DIP:DIP-4_W7.62mm" H 8900 1300 50  0001 L CIN
F 3 "http://www.soselectronic.cz/a_info/resource/d/pc817.pdf" H 9100 1500 50  0001 L CNN
	1    9100 1500
	1    0    0    -1  
$EndComp
$Comp
L Device:R R21
U 1 1 5FB01C94
P 8500 1400
F 0 "R21" V 8293 1400 50  0000 C CNN
F 1 "1K" V 8384 1400 50  0000 C CNN
F 2 "Resistor_SMD:R_0805_2012Metric" V 8430 1400 50  0001 C CNN
F 3 "~" H 8500 1400 50  0001 C CNN
	1    8500 1400
	0    1    1    0   
$EndComp
$Comp
L Device:R R22
U 1 1 5FB05863
P 9700 1150
F 0 "R22" V 9493 1150 50  0000 C CNN
F 1 "1K" V 9584 1150 50  0000 C CNN
F 2 "Resistor_SMD:R_0805_2012Metric" V 9630 1150 50  0001 C CNN
F 3 "~" H 9700 1150 50  0001 C CNN
	1    9700 1150
	0    1    1    0   
$EndComp
Wire Wire Line
	9400 1400 9500 1400
Wire Wire Line
	9550 1150 9500 1150
Wire Wire Line
	9500 1150 9500 1400
Connection ~ 9500 1400
Wire Wire Line
	9500 1400 9950 1400
Wire Wire Line
	8800 1600 8700 1600
Wire Wire Line
	8700 1600 8700 1750
Wire Wire Line
	8700 1750 9100 1750
Wire Wire Line
	9100 1750 9100 1800
Wire Wire Line
	9100 1750 9500 1750
Wire Wire Line
	9500 1750 9500 1600
Wire Wire Line
	9500 1600 9400 1600
Connection ~ 9100 1750
Wire Wire Line
	8650 1400 8800 1400
Wire Wire Line
	8350 1400 8200 1400
Wire Wire Line
	9850 1150 9900 1150
Wire Wire Line
	9950 1300 9900 1300
Wire Wire Line
	9900 1300 9900 1150
Connection ~ 9900 1150
Wire Wire Line
	9900 1150 10050 1150
Wire Wire Line
	9950 1500 9800 1500
Wire Wire Line
	9800 1500 9800 1600
Wire Wire Line
	9800 1600 9500 1600
Connection ~ 9500 1600
$Comp
L Interface_Expansion:MCP23017_SP U3
U 1 1 5FB35EA7
P 3800 6350
F 0 "U3" H 3450 7650 50  0000 C CNN
F 1 "MCP23017_SP" H 3450 7550 50  0000 C CNN
F 2 "Package_DIP:DIP-28_W7.62mm_LongPads" H 4000 5350 50  0001 L CNN
F 3 "http://ww1.microchip.com/downloads/en/DeviceDoc/20001952C.pdf" H 4000 5250 50  0001 L CNN
	1    3800 6350
	1    0    0    -1  
$EndComp
$Comp
L Device:R R6
U 1 1 5FB48DD4
P 3600 1450
F 0 "R6" V 3393 1450 50  0000 C CNN
F 1 "470" V 3484 1450 50  0000 C CNN
F 2 "Resistor_THT:R_Axial_DIN0207_L6.3mm_D2.5mm_P7.62mm_Horizontal" V 3530 1450 50  0001 C CNN
F 3 "~" H 3600 1450 50  0001 C CNN
	1    3600 1450
	1    0    0    -1  
$EndComp
$Comp
L Device:R R7
U 1 1 5FB492BE
P 3950 1650
F 0 "R7" V 4150 1650 50  0000 C CNN
F 1 "10K" V 4050 1650 50  0000 C CNN
F 2 "Resistor_SMD:R_0805_2012Metric" V 3880 1650 50  0001 C CNN
F 3 "~" H 3950 1650 50  0001 C CNN
	1    3950 1650
	0    -1   -1   0   
$EndComp
$Comp
L Device:R R8
U 1 1 5FB49931
P 3950 1850
F 0 "R8" V 3743 1850 50  0000 C CNN
F 1 "10K" V 3834 1850 50  0000 C CNN
F 2 "Resistor_THT:R_Axial_DIN0207_L6.3mm_D2.5mm_P7.62mm_Horizontal" V 3880 1850 50  0001 C CNN
F 3 "~" H 3950 1850 50  0001 C CNN
	1    3950 1850
	0    -1   -1   0   
$EndComp
Wire Wire Line
	3250 1650 3600 1650
Wire Wire Line
	3600 1650 3600 1600
Connection ~ 3600 1650
Wire Wire Line
	3600 1650 3800 1650
Wire Wire Line
	4150 1250 4200 1250
Wire Wire Line
	4100 1650 4250 1650
Wire Wire Line
	3600 1300 3600 1250
Wire Wire Line
	3600 1250 3750 1250
Wire Wire Line
	3250 1850 3800 1850
Wire Wire Line
	4100 1850 4250 1850
Wire Wire Line
	4250 1850 4250 1650
Connection ~ 4250 1650
Wire Wire Line
	4250 1650 4350 1650
$Comp
L Device:R R4
U 1 1 5FB5AB2F
P 1700 1650
F 0 "R4" V 1900 1650 50  0000 C CNN
F 1 "10K" V 1800 1650 50  0000 C CNN
F 2 "Resistor_SMD:R_0805_2012Metric" V 1630 1650 50  0001 C CNN
F 3 "~" H 1700 1650 50  0001 C CNN
	1    1700 1650
	0    -1   -1   0   
$EndComp
$Comp
L Switch:SW_Push SW1
U 1 1 5FB5AB35
P 1700 1300
F 0 "SW1" H 1750 1600 50  0000 R CNN
F 1 "RST" H 1950 1500 50  0000 R CNN
F 2 "Button_Switch_THT:SW_PUSH_6mm_H5mm" H 1700 1500 50  0001 C CNN
F 3 "~" H 1700 1500 50  0001 C CNN
	1    1700 1300
	1    0    0    -1  
$EndComp
Wire Wire Line
	1400 1300 1500 1300
Wire Wire Line
	1850 1650 1950 1650
Wire Wire Line
	1950 1300 1900 1300
Connection ~ 1950 1650
Wire Wire Line
	1950 1650 2050 1650
Wire Wire Line
	1950 1300 1950 1650
Wire Wire Line
	2050 1850 1850 1850
$Comp
L Regulator_Linear:AMS1117-3.3 U4
U 1 1 5FB738B5
P 6250 950
F 0 "U4" H 6250 1192 50  0000 C CNN
F 1 "AMS1117-3.3" H 6250 1101 50  0000 C CNN
F 2 "Package_TO_SOT_SMD:SOT-223-3_TabPin2" H 6250 1150 50  0001 C CNN
F 3 "http://www.advanced-monolithic.com/pdf/ds1117.pdf" H 6350 700 50  0001 C CNN
	1    6250 950 
	1    0    0    -1  
$EndComp
$Comp
L Device:C C2
U 1 1 5FB77A0C
P 6800 1100
F 0 "C2" H 6915 1146 50  0000 L CNN
F 1 "10uF" H 6915 1055 50  0000 L CNN
F 2 "Capacitor_SMD:C_0805_2012Metric_Pad1.15x1.40mm_HandSolder" H 6838 950 50  0001 C CNN
F 3 "~" H 6800 1100 50  0001 C CNN
	1    6800 1100
	1    0    0    -1  
$EndComp
$Comp
L Device:CP C1
U 1 1 5FB78364
P 5650 1100
F 0 "C1" H 5768 1146 50  0000 L CNN
F 1 "100uF" H 5768 1055 50  0000 L CNN
F 2 "Capacitor_THT:CP_Radial_D4.0mm_P1.50mm" H 5688 950 50  0001 C CNN
F 3 "~" H 5650 1100 50  0001 C CNN
	1    5650 1100
	1    0    0    -1  
$EndComp
Wire Wire Line
	5450 950  5650 950 
Connection ~ 5650 950 
Wire Wire Line
	5650 950  5950 950 
Wire Wire Line
	6550 950  6800 950 
Connection ~ 6800 950 
Wire Wire Line
	6800 950  7000 950 
Wire Wire Line
	5650 1250 5650 1350
Wire Wire Line
	6800 1350 6800 1250
Text GLabel 3250 1750 2    50   Input ~ 0
TX
Text GLabel 3250 1950 2    50   Input ~ 0
RX
Text GLabel 3250 2050 2    50   Input ~ 0
SDA
Text GLabel 3250 2150 2    50   Input ~ 0
SCL
Text GLabel 2950 5550 0    50   Input ~ 0
SDA
Text GLabel 2950 5650 0    50   Input ~ 0
SCL
Wire Wire Line
	3100 6150 3000 6150
Wire Wire Line
	3000 6150 3000 6200
Wire Wire Line
	3000 6250 3100 6250
Text GLabel 3250 2450 2    50   Input ~ 0
INTERRUPT
Text GLabel 2950 6200 0    50   Input ~ 0
INTERRUPT
Wire Wire Line
	3000 6200 2950 6200
Connection ~ 3000 6200
Wire Wire Line
	3000 6200 3000 6250
Wire Wire Line
	3850 5100 3800 5100
Wire Wire Line
	3800 5100 3800 5250
Wire Wire Line
	3800 7450 3800 7500
$Comp
L Switch:SW_DIP_x03 SW2
U 1 1 5FBC930E
P 1400 6350
F 0 "SW2" H 1400 6817 50  0000 C CNN
F 1 "SW_DIP_x03" H 1400 6726 50  0000 C CNN
F 2 "Button_Switch_THT:SW_DIP_SPSTx03_Slide_9.78x9.8mm_W7.62mm_P2.54mm" H 1400 6350 50  0001 C CNN
F 3 "~" H 1400 6350 50  0001 C CNN
	1    1400 6350
	0    -1   -1   0   
$EndComp
$Comp
L Device:R R3
U 1 1 5FBEA422
P 900 7150
F 0 "R3" V 900 7150 50  0000 C CNN
F 1 "10K" V 1000 7150 50  0000 C CNN
F 2 "Resistor_SMD:R_0805_2012Metric" V 830 7150 50  0001 C CNN
F 3 "~" H 900 7150 50  0001 C CNN
	1    900  7150
	-1   0    0    1   
$EndComp
Wire Wire Line
	3100 6450 2950 6450
Wire Wire Line
	2950 5550 3100 5550
Wire Wire Line
	3100 5650 2950 5650
Text GLabel 3250 2550 2    50   Input ~ 0
GPIO15
Text GLabel 6000 1750 0    50   Input ~ 0
GPIO15
$Comp
L Device:R R17
U 1 1 5FB62E8A
P 6250 1750
F 0 "R17" V 6050 1750 50  0000 C CNN
F 1 "10K" V 6150 1750 50  0000 C CNN
F 2 "Resistor_SMD:R_0805_2012Metric" V 6180 1750 50  0001 C CNN
F 3 "~" H 6250 1750 50  0001 C CNN
	1    6250 1750
	0    -1   -1   0   
$EndComp
Wire Wire Line
	6000 1750 6100 1750
Wire Wire Line
	6400 1750 6500 1750
$Comp
L Transistor_Array:ULN2003 U1
U 1 1 5FB70E9C
P 1950 4050
F 0 "U1" H 1950 4717 50  0000 C CNN
F 1 "ULN2003" H 1950 4626 50  0000 C CNN
F 2 "Package_DIP:DIP-16_W7.62mm_LongPads" H 2000 3500 50  0001 L CNN
F 3 "http://www.ti.com/lit/ds/symlink/uln2003a.pdf" H 2050 3850 50  0001 C CNN
	1    1950 4050
	1    0    0    -1  
$EndComp
Text GLabel 4500 6450 2    50   Input ~ 0
EXP_A_0
Text GLabel 4500 6550 2    50   Input ~ 0
EXP_A_1
Text GLabel 4500 6650 2    50   Input ~ 0
EXP_A_2
Text GLabel 4500 6750 2    50   Input ~ 0
EXP_A_3
Text GLabel 4500 6850 2    50   Input ~ 0
EXP_A_4
Text GLabel 4500 6950 2    50   Input ~ 0
EXP_A_5
Text GLabel 4500 7050 2    50   Input ~ 0
EXP_A_6
Text GLabel 4500 7150 2    50   Input ~ 0
EXP_A_7
Text GLabel 4500 5550 2    50   Input ~ 0
EXP_B_0
Text GLabel 4500 5650 2    50   Input ~ 0
EXP_B_1
Text GLabel 4500 5750 2    50   Input ~ 0
EXP_B_2
Text GLabel 4500 5850 2    50   Input ~ 0
EXP_B_3
Text GLabel 4500 5950 2    50   Input ~ 0
EXP_B_4
Text GLabel 4500 6050 2    50   Input ~ 0
EXP_B_5
Text GLabel 4500 6150 2    50   Input ~ 0
EXP_B_6
Text GLabel 3950 3250 0    50   Input ~ 0
EXP_A_1
Text GLabel 3950 3350 0    50   Input ~ 0
EXP_A_2
Text GLabel 3950 3750 0    50   Input ~ 0
EXP_A_4
Text GLabel 3950 3850 0    50   Input ~ 0
EXP_A_5
Text GLabel 3950 3650 0    50   Input ~ 0
EXP_A_6
Text GLabel 3900 4700 0    50   Input ~ 0
EXP_A_7
Wire Wire Line
	3950 3950 3900 3950
Wire Wire Line
	3900 3950 3900 4000
$Comp
L Connector_Generic:Conn_01x02 J2
U 1 1 5FBB5EC5
P 4250 4600
F 0 "J2" H 4330 4592 50  0000 L CNN
F 1 "PUMP_FLOOD" H 4330 4501 50  0000 L CNN
F 2 "ScrewTerminalLibrary:TerminalBlock_Phoenix_MPT-0,5-2-2.54_1x02_P2.54mm_Horizontal" H 4250 4600 50  0001 C CNN
F 3 "~" H 4250 4600 50  0001 C CNN
	1    4250 4600
	1    0    0    -1  
$EndComp
Wire Wire Line
	4050 4600 3850 4600
Wire Wire Line
	4050 4700 3900 4700
Text GLabel 1550 4450 0    50   Input ~ 0
EXP_B_0
Text GLabel 1550 4350 0    50   Input ~ 0
EXP_B_1
Text GLabel 1550 4250 0    50   Input ~ 0
EXP_B_2
Text GLabel 1550 4150 0    50   Input ~ 0
EXP_B_3
Text GLabel 1550 4050 0    50   Input ~ 0
EXP_B_4
Text GLabel 1550 3950 0    50   Input ~ 0
EXP_B_5
Text GLabel 1550 3850 0    50   Input ~ 0
EXP_B_6
$Comp
L Device:R R14
U 1 1 5FC18E22
P 6050 3000
F 0 "R14" V 6000 2800 50  0000 C CNN
F 1 "200" V 6050 3050 50  0000 C CNN
F 2 "Resistor_THT:R_Axial_DIN0207_L6.3mm_D2.5mm_P7.62mm_Horizontal" V 5980 3000 50  0001 C CNN
F 3 "~" H 6050 3000 50  0001 C CNN
	1    6050 3000
	0    -1   -1   0   
$EndComp
Text GLabel 2350 3850 2    50   Input ~ 0
LOGIC_OUT_0
Text GLabel 2350 3950 2    50   Input ~ 0
LOGIC_OUT_1
Text GLabel 2350 4050 2    50   Input ~ 0
LOGIC_OUT_2
Text GLabel 6200 3150 0    50   Input ~ 0
LOGIC_OUT_1
$Comp
L Device:R R15
U 1 1 5FC0B5E8
P 6050 3300
F 0 "R15" V 6000 3100 50  0000 C CNN
F 1 "150" V 6050 3350 50  0000 C CNN
F 2 "Resistor_THT:R_Axial_DIN0207_L6.3mm_D2.5mm_P7.62mm_Horizontal" V 5980 3300 50  0001 C CNN
F 3 "~" H 6050 3300 50  0001 C CNN
	1    6050 3300
	0    -1   -1   0   
$EndComp
$Comp
L Device:R R16
U 1 1 5FC156BD
P 6050 3600
F 0 "R16" V 6000 3400 50  0000 C CNN
F 1 "150" V 6050 3650 50  0000 C CNN
F 2 "Resistor_THT:R_Axial_DIN0207_L6.3mm_D2.5mm_P7.62mm_Horizontal" V 5980 3600 50  0001 C CNN
F 3 "~" H 6050 3600 50  0001 C CNN
	1    6050 3600
	0    -1   -1   0   
$EndComp
Text GLabel 2350 4150 2    50   Input ~ 0
LOGIC_OUT_3
$Comp
L Device:R R20
U 1 1 5FC8A6EA
P 8650 2800
F 0 "R20" V 8750 2800 50  0000 C CNN
F 1 "510" V 8550 2800 50  0000 C CNN
F 2 "Resistor_THT:R_Axial_DIN0207_L6.3mm_D2.5mm_P7.62mm_Horizontal" V 8580 2800 50  0001 C CNN
F 3 "~" H 8650 2800 50  0001 C CNN
	1    8650 2800
	1    0    0    -1  
$EndComp
Wire Wire Line
	8650 2950 8650 3000
Wire Wire Line
	8500 2650 8650 2650
$Comp
L Device:R R23
U 1 1 5FD077F1
P 9450 3000
F 0 "R23" V 9450 3000 50  0000 C CNN
F 1 "820" V 9350 3000 50  0000 C CNN
F 2 "Resistor_SMD:R_0805_2012Metric" V 9380 3000 50  0001 C CNN
F 3 "~" H 9450 3000 50  0001 C CNN
	1    9450 3000
	0    -1   -1   0   
$EndComp
$Comp
L Device:R R24
U 1 1 5FD0C6AD
P 9450 3200
F 0 "R24" V 9450 3200 50  0000 C CNN
F 1 "150" V 9350 3200 50  0000 C CNN
F 2 "Resistor_SMD:R_0805_2012Metric" V 9380 3200 50  0001 C CNN
F 3 "~" H 9450 3200 50  0001 C CNN
	1    9450 3200
	0    -1   -1   0   
$EndComp
Wire Wire Line
	9700 3000 9600 3000
Wire Wire Line
	9600 3200 9700 3200
$Comp
L Connector_Generic:Conn_01x04 J11
U 1 1 5FBADC47
P 9500 4550
F 0 "J11" H 9580 4542 50  0000 L CNN
F 1 "AMBIENT_SENSOR" H 9580 4451 50  0000 L CNN
F 2 "Connector_JST:JST_XH_B4B-XH-A_1x04_P2.50mm_Vertical" H 9500 4550 50  0001 C CNN
F 3 "~" H 9500 4550 50  0001 C CNN
	1    9500 4550
	1    0    0    -1  
$EndComp
Text GLabel 9300 4550 0    50   Input ~ 0
SCL
Wire Wire Line
	9300 4650 9100 4650
Wire Wire Line
	9100 4750 9300 4750
$Comp
L Device:R R9
U 1 1 5FC3D469
P 4000 2400
F 0 "R9" V 3793 2400 50  0000 C CNN
F 1 "4.7K" V 3884 2400 50  0000 C CNN
F 2 "Resistor_SMD:R_0805_2012Metric" V 3930 2400 50  0001 C CNN
F 3 "~" H 4000 2400 50  0001 C CNN
	1    4000 2400
	1    0    0    -1  
$EndComp
Text GLabel 4100 2250 2    50   Input ~ 0
ONE_WIRE_IN
Wire Wire Line
	3250 2250 4000 2250
Connection ~ 4000 2250
Wire Wire Line
	4000 2250 4100 2250
Wire Wire Line
	4000 2550 4000 2600
Wire Wire Line
	4000 2600 4100 2600
Wire Wire Line
	6500 3050 6350 3050
Wire Wire Line
	6350 3050 6350 2850
Wire Wire Line
	6350 2850 6300 2850
Wire Wire Line
	6500 3150 6300 3150
Wire Wire Line
	6500 3250 6350 3250
Wire Wire Line
	6350 3250 6350 3450
Wire Wire Line
	6350 3450 6300 3450
Wire Wire Line
	6300 3150 6300 3300
Wire Wire Line
	6300 3300 6200 3300
Connection ~ 6300 3150
Wire Wire Line
	6300 3150 6200 3150
Wire Wire Line
	6300 2850 6300 3000
Wire Wire Line
	6300 3000 6200 3000
Connection ~ 6300 2850
Wire Wire Line
	6300 2850 6200 2850
Wire Wire Line
	6300 3450 6300 3600
Wire Wire Line
	6300 3600 6200 3600
Connection ~ 6300 3450
Wire Wire Line
	6300 3450 6200 3450
Wire Wire Line
	6500 3350 6450 3350
Wire Wire Line
	6450 3350 6450 3450
Text GLabel 2350 4250 2    50   Input ~ 0
LOGIC_OUT_4
Text GLabel 2350 4350 2    50   Input ~ 0
LOGIC_OUT_5
Text GLabel 2350 4450 2    50   Input ~ 0
LOGIC_OUT_6
Text GLabel 8100 5850 0    50   Input ~ 0
SDA
Text GLabel 8100 5950 0    50   Input ~ 0
SCL
$Comp
L Device:R R18
U 1 1 5FFC35CF
P 8250 5650
F 0 "R18" V 8043 5650 50  0000 C CNN
F 1 "4.7K" V 8134 5650 50  0000 C CNN
F 2 "Resistor_SMD:R_0805_2012Metric" V 8180 5650 50  0001 C CNN
F 3 "~" H 8250 5650 50  0001 C CNN
	1    8250 5650
	-1   0    0    1   
$EndComp
$Comp
L Device:R R19
U 1 1 5FFC35D5
P 8250 6150
F 0 "R19" V 8043 6150 50  0000 C CNN
F 1 "4.7K" V 8134 6150 50  0000 C CNN
F 2 "Resistor_SMD:R_0805_2012Metric" V 8180 6150 50  0001 C CNN
F 3 "~" H 8250 6150 50  0001 C CNN
	1    8250 6150
	-1   0    0    1   
$EndComp
Wire Wire Line
	8250 6300 7750 6300
Wire Wire Line
	7750 6300 7750 5850
Wire Wire Line
	7750 5400 8250 5400
Wire Wire Line
	8250 5400 8250 5500
Wire Wire Line
	8100 5850 8250 5850
Wire Wire Line
	8600 5950 8250 5950
Wire Wire Line
	8250 5800 8250 5850
Connection ~ 8250 5850
Wire Wire Line
	8250 5850 8600 5850
Wire Wire Line
	8250 5950 8250 6000
Connection ~ 8250 5950
Wire Wire Line
	8250 5950 8100 5950
Wire Wire Line
	7700 5850 7750 5850
Connection ~ 7750 5850
Wire Wire Line
	7750 5850 7750 5400
Text GLabel 9850 5700 0    50   Input ~ 0
TX
Text GLabel 9850 5800 0    50   Input ~ 0
RX
$Comp
L Connector_Generic:Conn_01x03 J12
U 1 1 6002AC7B
P 10050 5800
F 0 "J12" H 10130 5842 50  0000 L CNN
F 1 "PROG_IN" H 10130 5751 50  0000 L CNN
F 2 "Connector_PinSocket_2.54mm:PinSocket_1x03_P2.54mm_Vertical" H 10050 5800 50  0001 C CNN
F 3 "~" H 10050 5800 50  0001 C CNN
	1    10050 5800
	1    0    0    -1  
$EndComp
Wire Wire Line
	9850 5900 9700 5900
Wire Wire Line
	9700 5900 9700 5950
NoConn ~ 3250 2650
$Comp
L Connector_Generic:Conn_01x03 J7
U 1 1 601444F3
P 8800 5950
F 0 "J7" H 8880 5992 50  0000 L CNN
F 1 "I2C" H 8880 5901 50  0000 L CNN
F 2 "Connector_JST:JST_XH_B3B-XH-A_1x03_P2.50mm_Vertical" H 8800 5950 50  0001 C CNN
F 3 "~" H 8800 5950 50  0001 C CNN
	1    8800 5950
	1    0    0    -1  
$EndComp
Wire Wire Line
	8600 6050 8600 6150
Wire Wire Line
	5650 1350 6250 1350
Wire Wire Line
	6250 1250 6250 1350
Connection ~ 6250 1350
Wire Wire Line
	6250 1350 6800 1350
Wire Wire Line
	6250 1350 6250 1400
NoConn ~ 4500 6250
Wire Wire Line
	900  7300 900  7350
Text GLabel 3100 7150 0    50   Input ~ 0
EXP_ADDR_0
Text GLabel 3100 7050 0    50   Input ~ 0
EXP_ADDR_1
Text GLabel 3100 6950 0    50   Input ~ 0
EXP_ADDR_2
Text GLabel 1050 7000 3    50   Input ~ 0
EXP_ADDR_2
$Comp
L Device:R R1
U 1 1 5FD2B3DB
P 1200 7150
F 0 "R1" V 1200 7150 50  0000 C CNN
F 1 "10K" V 1100 7150 50  0000 C CNN
F 2 "Resistor_SMD:R_0805_2012Metric" V 1130 7150 50  0001 C CNN
F 3 "~" H 1200 7150 50  0001 C CNN
	1    1200 7150
	-1   0    0    1   
$EndComp
Wire Wire Line
	1200 7300 1200 7350
Wire Wire Line
	1400 7000 1400 6850
Wire Wire Line
	1200 6850 1200 7000
$Comp
L Device:R R2
U 1 1 5FD33287
P 1600 7150
F 0 "R2" V 1600 7150 50  0000 C CNN
F 1 "10K" V 1700 7150 50  0000 C CNN
F 2 "Resistor_SMD:R_0805_2012Metric" V 1530 7150 50  0001 C CNN
F 3 "~" H 1600 7150 50  0001 C CNN
	1    1600 7150
	-1   0    0    1   
$EndComp
Wire Wire Line
	1600 7300 1600 7350
Wire Wire Line
	1050 6700 1200 6700
Wire Wire Line
	1200 6700 1200 6650
Wire Wire Line
	1300 6850 1300 6650
Wire Wire Line
	1300 6850 1200 6850
Wire Wire Line
	1400 6650 1400 6700
Wire Wire Line
	1400 6700 1600 6700
Wire Wire Line
	1600 6700 1600 6850
Wire Wire Line
	1050 6700 1050 6850
Wire Wire Line
	1750 7000 1750 6850
Wire Wire Line
	1750 6850 1600 6850
Connection ~ 1600 6850
Wire Wire Line
	1600 6850 1600 7000
Wire Wire Line
	900  6850 1050 6850
Wire Wire Line
	1400 6850 1300 6850
Connection ~ 1300 6850
Connection ~ 1050 6850
Wire Wire Line
	1050 6850 1050 7000
Wire Wire Line
	900  6850 900  7000
$Comp
L Connector:RJ45 J1
U 1 1 5FB339B5
P 4350 3550
F 0 "J1" H 4020 3554 50  0000 R CNN
F 1 "RJ45" H 4020 3645 50  0000 R CNN
F 2 "Connector_RJ:RJ45_Amphenol_54602-x08_Horizontal" V 4350 3575 50  0001 C CNN
F 3 "~" V 4350 3575 50  0001 C CNN
	1    4350 3550
	-1   0    0    1   
$EndComp
$Comp
L WaterSystem_Board-rescue:ESP-12E_NO_BOTTOM_PIN-ESP-12E_NO_BOTTOM_PIN U2
U 1 1 5FAFA0DF
P 2650 2250
F 0 "U2" H 2450 3250 50  0000 C CNN
F 1 "ESP-12E" H 2450 3150 50  0000 C CNN
F 2 "ESP-12E_NO_BOTTOM_PIN:ESP-12E_NO_BOTTOM_PIN" H 2650 2250 50  0001 C CNN
F 3 "http://wiki.ai-thinker.com/_media/esp8266/esp8266_series_modules_user_manual_v1.1.pdf" H 2300 2350 50  0001 C CNN
	1    2650 2250
	1    0    0    -1  
$EndComp
$Comp
L power:+3.3V #PWR032
U 1 1 5FFC35E7
P 7700 5850
F 0 "#PWR032" H 7700 5700 50  0001 C CNN
F 1 "+3.3V" V 7715 5978 50  0000 L CNN
F 2 "" H 7700 5850 50  0001 C CNN
F 3 "" H 7700 5850 50  0001 C CNN
	1    7700 5850
	0    -1   -1   0   
$EndComp
$Comp
L power:GND #PWR039
U 1 1 6008CEF2
P 9700 5950
F 0 "#PWR039" H 9700 5700 50  0001 C CNN
F 1 "GND" H 9705 5777 50  0000 C CNN
F 2 "" H 9700 5950 50  0001 C CNN
F 3 "" H 9700 5950 50  0001 C CNN
	1    9700 5950
	1    0    0    -1  
$EndComp
$Comp
L power:GND #PWR043
U 1 1 6015E483
P 8600 6150
F 0 "#PWR043" H 8600 5900 50  0001 C CNN
F 1 "GND" H 8605 5977 50  0000 C CNN
F 2 "" H 8600 6150 50  0001 C CNN
F 3 "" H 8600 6150 50  0001 C CNN
	1    8600 6150
	1    0    0    -1  
$EndComp
$Comp
L power:GND #PWR036
U 1 1 5FBE77B9
P 9100 4650
F 0 "#PWR036" H 9100 4400 50  0001 C CNN
F 1 "GND" H 9105 4477 50  0000 C CNN
F 2 "" H 9100 4650 50  0001 C CNN
F 3 "" H 9100 4650 50  0001 C CNN
	1    9100 4650
	0    1    1    0   
$EndComp
$Comp
L power:+3.3V #PWR035
U 1 1 5FBE77BF
P 9100 4750
F 0 "#PWR035" H 9100 4600 50  0001 C CNN
F 1 "+3.3V" V 9115 4878 50  0000 L CNN
F 2 "" H 9100 4750 50  0001 C CNN
F 3 "" H 9100 4750 50  0001 C CNN
	1    9100 4750
	0    -1   -1   0   
$EndComp
$Comp
L power:GND #PWR033
U 1 1 5FC95749
P 8650 3000
F 0 "#PWR033" H 8650 2750 50  0001 C CNN
F 1 "GND" H 8655 2827 50  0000 C CNN
F 2 "" H 8650 3000 50  0001 C CNN
F 3 "" H 8650 3000 50  0001 C CNN
	1    8650 3000
	1    0    0    -1  
$EndComp
$Comp
L power:+5V #PWR042
U 1 1 5FCCDA89
P 9700 3200
F 0 "#PWR042" H 9700 3050 50  0001 C CNN
F 1 "+5V" V 9715 3328 50  0000 L CNN
F 2 "" H 9700 3200 50  0001 C CNN
F 3 "" H 9700 3200 50  0001 C CNN
	1    9700 3200
	0    1    1    0   
$EndComp
$Comp
L power:+5V #PWR041
U 1 1 5FCC85A3
P 9700 3000
F 0 "#PWR041" H 9700 2850 50  0001 C CNN
F 1 "+5V" V 9715 3128 50  0000 L CNN
F 2 "" H 9700 3000 50  0001 C CNN
F 3 "" H 9700 3000 50  0001 C CNN
	1    9700 3000
	0    1    1    0   
$EndComp
$Comp
L power:+5V #PWR040
U 1 1 5FB0A0FB
P 10050 1150
F 0 "#PWR040" H 10050 1000 50  0001 C CNN
F 1 "+5V" V 10065 1278 50  0000 L CNN
F 2 "" H 10050 1150 50  0001 C CNN
F 3 "" H 10050 1150 50  0001 C CNN
	1    10050 1150
	0    1    1    0   
$EndComp
$Comp
L power:GND #PWR034
U 1 1 5FB046EE
P 9100 1800
F 0 "#PWR034" H 9100 1550 50  0001 C CNN
F 1 "GND" H 9105 1627 50  0000 C CNN
F 2 "" H 9100 1800 50  0001 C CNN
F 3 "" H 9100 1800 50  0001 C CNN
	1    9100 1800
	1    0    0    -1  
$EndComp
$Comp
L power:GND #PWR029
U 1 1 5FDE72E5
P 6450 3450
F 0 "#PWR029" H 6450 3200 50  0001 C CNN
F 1 "GND" H 6455 3277 50  0000 C CNN
F 2 "" H 6450 3450 50  0001 C CNN
F 3 "" H 6450 3450 50  0001 C CNN
	1    6450 3450
	1    0    0    -1  
$EndComp
$Comp
L power:+5V #PWR024
U 1 1 5FDD1747
P 5900 3600
F 0 "#PWR024" H 5900 3450 50  0001 C CNN
F 1 "+5V" V 5915 3728 50  0000 L CNN
F 2 "" H 5900 3600 50  0001 C CNN
F 3 "" H 5900 3600 50  0001 C CNN
	1    5900 3600
	0    -1   -1   0   
$EndComp
$Comp
L power:+5V #PWR023
U 1 1 5FDC9FE8
P 5900 3300
F 0 "#PWR023" H 5900 3150 50  0001 C CNN
F 1 "+5V" V 5915 3428 50  0000 L CNN
F 2 "" H 5900 3300 50  0001 C CNN
F 3 "" H 5900 3300 50  0001 C CNN
	1    5900 3300
	0    -1   -1   0   
$EndComp
$Comp
L power:+5V #PWR022
U 1 1 5FBAA5DA
P 5900 3000
F 0 "#PWR022" H 5900 2850 50  0001 C CNN
F 1 "+5V" V 5915 3128 50  0000 L CNN
F 2 "" H 5900 3000 50  0001 C CNN
F 3 "" H 5900 3000 50  0001 C CNN
	1    5900 3000
	0    -1   -1   0   
$EndComp
$Comp
L Connector_Generic:Conn_01x02 J14
U 1 1 6018FAA0
P 6700 2350
F 0 "J14" H 6780 2342 50  0000 L CNN
F 1 "POWER_IN" H 6780 2251 50  0000 L CNN
F 2 "ScrewTerminalLibrary:TerminalBlock_Phoenix_MPT-0,5-2-2.54_1x02_P2.54mm_Horizontal" H 6700 2350 50  0001 C CNN
F 3 "~" H 6700 2350 50  0001 C CNN
	1    6700 2350
	1    0    0    -1  
$EndComp
$Comp
L power:GND #PWR030
U 1 1 5FB67D96
P 6500 1750
F 0 "#PWR030" H 6500 1500 50  0001 C CNN
F 1 "GND" H 6505 1577 50  0000 C CNN
F 2 "" H 6500 1750 50  0001 C CNN
F 3 "" H 6500 1750 50  0001 C CNN
	1    6500 1750
	0    -1   -1   0   
$EndComp
Wire Wire Line
	6300 5500 6450 5500
$Comp
L power:+5V #PWR026
U 1 1 6023D29B
P 6450 5500
F 0 "#PWR026" H 6450 5350 50  0001 C CNN
F 1 "+5V" V 6465 5628 50  0000 L CNN
F 2 "" H 6450 5500 50  0001 C CNN
F 3 "" H 6450 5500 50  0001 C CNN
	1    6450 5500
	0    1    1    0   
$EndComp
Wire Wire Line
	6400 6950 6250 6950
$Comp
L power:+5V #PWR0101
U 1 1 601C3CAA
P 6400 6950
F 0 "#PWR0101" H 6400 6800 50  0001 C CNN
F 1 "+5V" V 6415 7078 50  0000 L CNN
F 2 "" H 6400 6950 50  0001 C CNN
F 3 "" H 6400 6950 50  0001 C CNN
	1    6400 6950
	0    1    1    0   
$EndComp
Wire Wire Line
	5950 6950 5950 7150
Wire Wire Line
	5950 7150 6100 7150
Connection ~ 5950 7150
Wire Wire Line
	5850 7150 5950 7150
$Comp
L Device:R R11
U 1 1 5FF5B1FF
P 6100 6950
F 0 "R11" V 6050 6750 50  0000 C CNN
F 1 "1K" V 6100 7000 50  0000 C CNN
F 2 "Resistor_THT:R_Axial_DIN0207_L6.3mm_D2.5mm_P7.62mm_Horizontal" V 6030 6950 50  0001 C CNN
F 3 "~" H 6100 6950 50  0001 C CNN
	1    6100 6950
	0    -1   -1   0   
$EndComp
Wire Wire Line
	6000 7250 6000 7300
Wire Wire Line
	6100 7250 6000 7250
$Comp
L power:GND #PWR019
U 1 1 5FF5B1F7
P 6000 7300
F 0 "#PWR019" H 6000 7050 50  0001 C CNN
F 1 "GND" H 6005 7127 50  0000 C CNN
F 2 "" H 6000 7300 50  0001 C CNN
F 3 "" H 6000 7300 50  0001 C CNN
	1    6000 7300
	1    0    0    -1  
$EndComp
Wire Wire Line
	5950 6200 5950 6400
Wire Wire Line
	5950 6400 6100 6400
Connection ~ 5950 6400
Wire Wire Line
	5850 6400 5950 6400
Wire Wire Line
	6250 6200 6350 6200
$Comp
L power:+5V #PWR025
U 1 1 5FF52A7D
P 6350 6200
F 0 "#PWR025" H 6350 6050 50  0001 C CNN
F 1 "+5V" V 6365 6328 50  0000 L CNN
F 2 "" H 6350 6200 50  0001 C CNN
F 3 "" H 6350 6200 50  0001 C CNN
	1    6350 6200
	0    1    1    0   
$EndComp
$Comp
L Device:R R10
U 1 1 5FF52A77
P 6100 6200
F 0 "R10" V 6050 6000 50  0000 C CNN
F 1 "1K" V 6100 6250 50  0000 C CNN
F 2 "Resistor_THT:R_Axial_DIN0207_L6.3mm_D2.5mm_P7.62mm_Horizontal" V 6030 6200 50  0001 C CNN
F 3 "~" H 6100 6200 50  0001 C CNN
	1    6100 6200
	0    -1   -1   0   
$EndComp
Wire Wire Line
	6000 6500 6000 6550
Wire Wire Line
	6100 6500 6000 6500
$Comp
L power:GND #PWR018
U 1 1 5FF52A6F
P 6000 6550
F 0 "#PWR018" H 6000 6300 50  0001 C CNN
F 1 "GND" H 6005 6377 50  0000 C CNN
F 2 "" H 6000 6550 50  0001 C CNN
F 3 "" H 6000 6550 50  0001 C CNN
	1    6000 6550
	1    0    0    -1  
$EndComp
$Comp
L Connector_Generic:Conn_01x02 J4
U 1 1 5FEF42D2
P 6300 7150
F 0 "J4" H 6380 7142 50  0000 L CNN
F 1 "GEN_OUT_3" H 6380 7051 50  0000 L CNN
F 2 "Connector_JST:JST_XH_B2B-XH-A_1x02_P2.50mm_Vertical" H 6300 7150 50  0001 C CNN
F 3 "~" H 6300 7150 50  0001 C CNN
	1    6300 7150
	1    0    0    -1  
$EndComp
$Comp
L Connector_Generic:Conn_01x02 J3
U 1 1 5FEED023
P 6300 6400
F 0 "J3" H 6380 6392 50  0000 L CNN
F 1 "GEN_OUT_2" H 6380 6301 50  0000 L CNN
F 2 "Connector_JST:JST_XH_B2B-XH-A_1x02_P2.50mm_Vertical" H 6300 6400 50  0001 C CNN
F 3 "~" H 6300 6400 50  0001 C CNN
	1    6300 6400
	1    0    0    -1  
$EndComp
$Comp
L Connector_Generic:Conn_01x02 J5
U 1 1 5FEE4CB9
P 6350 5700
F 0 "J5" H 6430 5692 50  0000 L CNN
F 1 "GEN_OUT_1" H 6430 5601 50  0000 L CNN
F 2 "Connector_JST:JST_XH_B2B-XH-A_1x02_P2.50mm_Vertical" H 6350 5700 50  0001 C CNN
F 3 "~" H 6350 5700 50  0001 C CNN
	1    6350 5700
	1    0    0    -1  
$EndComp
Wire Wire Line
	6000 5500 6000 5700
Wire Wire Line
	6000 5700 6150 5700
Connection ~ 6000 5700
Wire Wire Line
	5900 5700 6000 5700
$Comp
L Device:R R12
U 1 1 5FED7CE5
P 6150 5500
F 0 "R12" V 6100 5300 50  0000 C CNN
F 1 "1K" V 6150 5550 50  0000 C CNN
F 2 "Resistor_THT:R_Axial_DIN0207_L6.3mm_D2.5mm_P7.62mm_Horizontal" V 6080 5500 50  0001 C CNN
F 3 "~" H 6150 5500 50  0001 C CNN
	1    6150 5500
	0    -1   -1   0   
$EndComp
Wire Wire Line
	6050 5800 6050 5850
Wire Wire Line
	6150 5800 6050 5800
$Comp
L power:GND #PWR020
U 1 1 5FED7CDC
P 6050 5850
F 0 "#PWR020" H 6050 5600 50  0001 C CNN
F 1 "GND" H 6055 5677 50  0000 C CNN
F 2 "" H 6050 5850 50  0001 C CNN
F 3 "" H 6050 5850 50  0001 C CNN
	1    6050 5850
	1    0    0    -1  
$EndComp
Text GLabel 5850 7150 0    50   Input ~ 0
LOGIC_OUT_6
Text GLabel 5850 6400 0    50   Input ~ 0
LOGIC_OUT_5
Text GLabel 5900 5700 0    50   Input ~ 0
LOGIC_OUT_4
Wire Wire Line
	8500 2550 8600 2550
Wire Wire Line
	8900 2150 9000 2150
$Comp
L power:+5V #PWR027
U 1 1 5FC1C3C2
P 9000 2150
F 0 "#PWR027" H 9000 2000 50  0001 C CNN
F 1 "+5V" V 9015 2278 50  0000 L CNN
F 2 "" H 9000 2150 50  0001 C CNN
F 3 "" H 9000 2150 50  0001 C CNN
	1    9000 2150
	0    1    1    0   
$EndComp
$Comp
L Device:R R13
U 1 1 5FC07E52
P 8750 2150
F 0 "R13" V 8700 1950 50  0000 C CNN
F 1 "1K" V 8750 2200 50  0000 C CNN
F 2 "Resistor_THT:R_Axial_DIN0207_L6.3mm_D2.5mm_P7.62mm_Horizontal" V 8680 2150 50  0001 C CNN
F 3 "~" H 8750 2150 50  0001 C CNN
	1    8750 2150
	0    -1   -1   0   
$EndComp
Text GLabel 8500 2550 0    50   Input ~ 0
LOGIC_OUT_3
$Comp
L power:GND #PWR012
U 1 1 5FBA2607
P 3900 4000
F 0 "#PWR012" H 3900 3750 50  0001 C CNN
F 1 "GND" H 3905 3827 50  0000 C CNN
F 2 "" H 3900 4000 50  0001 C CNN
F 3 "" H 3900 4000 50  0001 C CNN
	1    3900 4000
	1    0    0    -1  
$EndComp
$Comp
L power:GND #PWR013
U 1 1 5FBB97D3
P 3850 4600
F 0 "#PWR013" H 3850 4350 50  0001 C CNN
F 1 "GND" H 3855 4427 50  0000 C CNN
F 2 "" H 3850 4600 50  0001 C CNN
F 3 "" H 3850 4600 50  0001 C CNN
	1    3850 4600
	-1   0    0    1   
$EndComp
$Comp
L power:+3.3V #PWR011
U 1 1 5FBB907C
P 3850 5100
F 0 "#PWR011" H 3850 4950 50  0001 C CNN
F 1 "+3.3V" V 3865 5228 50  0000 L CNN
F 2 "" H 3850 5100 50  0001 C CNN
F 3 "" H 3850 5100 50  0001 C CNN
	1    3850 5100
	0    1    1    0   
$EndComp
$Comp
L power:GND #PWR010
U 1 1 5FBB9082
P 3800 7500
F 0 "#PWR010" H 3800 7250 50  0001 C CNN
F 1 "GND" H 3805 7327 50  0000 C CNN
F 2 "" H 3800 7500 50  0001 C CNN
F 3 "" H 3800 7500 50  0001 C CNN
	1    3800 7500
	1    0    0    -1  
$EndComp
$Comp
L power:+3.3V #PWR07
U 1 1 5FBFEC16
P 2950 6450
F 0 "#PWR07" H 2950 6300 50  0001 C CNN
F 1 "+3.3V" V 2950 6600 50  0000 L CNN
F 2 "" H 2950 6450 50  0001 C CNN
F 3 "" H 2950 6450 50  0001 C CNN
	1    2950 6450
	0    -1   -1   0   
$EndComp
$Comp
L power:GND #PWR047
U 1 1 5FD3328D
P 1600 7350
F 0 "#PWR047" H 1600 7100 50  0001 C CNN
F 1 "GND" H 1605 7177 50  0000 C CNN
F 2 "" H 1600 7350 50  0001 C CNN
F 3 "" H 1600 7350 50  0001 C CNN
	1    1600 7350
	1    0    0    -1  
$EndComp
$Comp
L power:GND #PWR046
U 1 1 5FD2B3E1
P 1200 7350
F 0 "#PWR046" H 1200 7100 50  0001 C CNN
F 1 "GND" H 1205 7177 50  0000 C CNN
F 2 "" H 1200 7350 50  0001 C CNN
F 3 "" H 1200 7350 50  0001 C CNN
	1    1200 7350
	1    0    0    -1  
$EndComp
$Comp
L power:GND #PWR028
U 1 1 5FCA1E34
P 900 7350
F 0 "#PWR028" H 900 7100 50  0001 C CNN
F 1 "GND" H 905 7177 50  0000 C CNN
F 2 "" H 900 7350 50  0001 C CNN
F 3 "" H 900 7350 50  0001 C CNN
	1    900  7350
	1    0    0    -1  
$EndComp
$Comp
L power:GND #PWR05
U 1 1 5FBE41A5
P 1950 4650
F 0 "#PWR05" H 1950 4400 50  0001 C CNN
F 1 "GND" H 1955 4477 50  0000 C CNN
F 2 "" H 1950 4650 50  0001 C CNN
F 3 "" H 1950 4650 50  0001 C CNN
	1    1950 4650
	1    0    0    -1  
$EndComp
$Comp
L power:+5V #PWR06
U 1 1 5FBFEF9F
P 2400 3650
F 0 "#PWR06" H 2400 3500 50  0001 C CNN
F 1 "+5V" V 2415 3778 50  0000 L CNN
F 2 "" H 2400 3650 50  0001 C CNN
F 3 "" H 2400 3650 50  0001 C CNN
	1    2400 3650
	0    1    1    0   
$EndComp
Wire Wire Line
	2400 3650 2350 3650
$Comp
L power:+3.3V #PWR014
U 1 1 5FC89C59
P 4100 2600
F 0 "#PWR014" H 4100 2450 50  0001 C CNN
F 1 "+3.3V" V 4115 2728 50  0000 L CNN
F 2 "" H 4100 2600 50  0001 C CNN
F 3 "" H 4100 2600 50  0001 C CNN
	1    4100 2600
	0    1    1    0   
$EndComp
$Comp
L power:+3.3V #PWR016
U 1 1 5FB4DFC7
P 4350 1650
F 0 "#PWR016" H 4350 1500 50  0001 C CNN
F 1 "+3.3V" V 4365 1778 50  0000 L CNN
F 2 "" H 4350 1650 50  0001 C CNN
F 3 "" H 4350 1650 50  0001 C CNN
	1    4350 1650
	0    1    1    0   
$EndComp
$Comp
L power:+3.3V #PWR09
U 1 1 5FB0A7A5
P 2750 1350
F 0 "#PWR09" H 2750 1200 50  0001 C CNN
F 1 "+3.3V" V 2765 1478 50  0000 L CNN
F 2 "" H 2750 1350 50  0001 C CNN
F 3 "" H 2750 1350 50  0001 C CNN
	1    2750 1350
	0    1    1    0   
$EndComp
$Comp
L Device:R R5
U 1 1 5FB6CE1E
P 1700 1850
F 0 "R5" V 1700 1850 50  0000 C CNN
F 1 "10K" V 1600 1850 50  0000 C CNN
F 2 "Resistor_SMD:R_0805_2012Metric" V 1630 1850 50  0001 C CNN
F 3 "~" H 1700 1850 50  0001 C CNN
	1    1700 1850
	0    -1   -1   0   
$EndComp
Text GLabel 2050 2050 0    50   Input ~ 0
BTN_ANALOG_IN
Wire Wire Line
	1400 1850 1550 1850
Wire Wire Line
	1400 1650 1550 1650
$Comp
L power:+3.3V #PWR04
U 1 1 5FB6CE24
P 1400 1850
F 0 "#PWR04" H 1400 1700 50  0001 C CNN
F 1 "+3.3V" V 1415 1978 50  0000 L CNN
F 2 "" H 1400 1850 50  0001 C CNN
F 3 "" H 1400 1850 50  0001 C CNN
	1    1400 1850
	0    -1   -1   0   
$EndComp
$Comp
L power:+3.3V #PWR03
U 1 1 5FB5B914
P 1400 1650
F 0 "#PWR03" H 1400 1500 50  0001 C CNN
F 1 "+3.3V" V 1415 1778 50  0000 L CNN
F 2 "" H 1400 1650 50  0001 C CNN
F 3 "" H 1400 1650 50  0001 C CNN
	1    1400 1650
	0    -1   -1   0   
$EndComp
$Comp
L power:GND #PWR015
U 1 1 5FB4B669
P 4200 1250
F 0 "#PWR015" H 4200 1000 50  0001 C CNN
F 1 "GND" H 4205 1077 50  0000 C CNN
F 2 "" H 4200 1250 50  0001 C CNN
F 3 "" H 4200 1250 50  0001 C CNN
	1    4200 1250
	0    -1   -1   0   
$EndComp
$Comp
L power:GND #PWR08
U 1 1 5FAFA6F1
P 2650 3100
F 0 "#PWR08" H 2650 2850 50  0001 C CNN
F 1 "GND" H 2655 2927 50  0000 C CNN
F 2 "" H 2650 3100 50  0001 C CNN
F 3 "" H 2650 3100 50  0001 C CNN
	1    2650 3100
	1    0    0    -1  
$EndComp
$Comp
L power:GND #PWR02
U 1 1 5FB5AB3B
P 1400 1300
F 0 "#PWR02" H 1400 1050 50  0001 C CNN
F 1 "GND" H 1405 1127 50  0000 C CNN
F 2 "" H 1400 1300 50  0001 C CNN
F 3 "" H 1400 1300 50  0001 C CNN
	1    1400 1300
	0    1    1    0   
$EndComp
$Comp
L power:+3.3V #PWR031
U 1 1 5FB7EBF9
P 7000 950
F 0 "#PWR031" H 7000 800 50  0001 C CNN
F 1 "+3.3V" V 7015 1078 50  0000 L CNN
F 2 "" H 7000 950 50  0001 C CNN
F 3 "" H 7000 950 50  0001 C CNN
	1    7000 950 
	0    1    1    0   
$EndComp
$Comp
L power:GND #PWR0102
U 1 1 60204BDA
P 6250 1400
F 0 "#PWR0102" H 6250 1150 50  0001 C CNN
F 1 "GND" H 6255 1227 50  0000 C CNN
F 2 "" H 6250 1400 50  0001 C CNN
F 3 "" H 6250 1400 50  0001 C CNN
	1    6250 1400
	1    0    0    -1  
$EndComp
$Comp
L power:+5V #PWR017
U 1 1 5FB81860
P 5450 950
F 0 "#PWR017" H 5450 800 50  0001 C CNN
F 1 "+5V" V 5465 1078 50  0000 L CNN
F 2 "" H 5450 950 50  0001 C CNN
F 3 "" H 5450 950 50  0001 C CNN
	1    5450 950 
	0    -1   -1   0   
$EndComp
$Comp
L power:+3.3V #PWR01
U 1 1 5FBDFE4E
P 1300 5900
F 0 "#PWR01" H 1300 5750 50  0001 C CNN
F 1 "+3.3V" V 1300 6050 50  0000 L CNN
F 2 "" H 1300 5900 50  0001 C CNN
F 3 "" H 1300 5900 50  0001 C CNN
	1    1300 5900
	1    0    0    -1  
$EndComp
Wire Wire Line
	1200 6050 1200 5950
Wire Wire Line
	1200 5950 1300 5950
Wire Wire Line
	1300 5950 1300 5900
Wire Wire Line
	1300 6050 1300 5950
Connection ~ 1300 5950
Wire Wire Line
	1400 6050 1400 5950
Wire Wire Line
	1400 5950 1300 5950
$Comp
L Connector_Generic:Conn_01x04 J15
U 1 1 5FBEB003
P 6700 3150
F 0 "J15" H 6780 3142 50  0000 L CNN
F 1 "STATUS_LED" H 6780 3051 50  0000 L CNN
F 2 "Connector_JST:JST_XH_B4B-XH-A_1x04_P2.50mm_Vertical" H 6700 3150 50  0001 C CNN
F 3 "~" H 6700 3150 50  0001 C CNN
	1    6700 3150
	1    0    0    -1  
$EndComp
$Comp
L power:+3.3V #PWR037
U 1 1 5FC31A37
P 5950 4800
F 0 "#PWR037" H 5950 4650 50  0001 C CNN
F 1 "+3.3V" V 5965 4928 50  0000 L CNN
F 2 "" H 5950 4800 50  0001 C CNN
F 3 "" H 5950 4800 50  0001 C CNN
	1    5950 4800
	0    -1   -1   0   
$EndComp
$Comp
L power:GND #PWR038
U 1 1 5FC31A31
P 5950 5000
F 0 "#PWR038" H 5950 4750 50  0001 C CNN
F 1 "GND" H 5955 4827 50  0000 C CNN
F 2 "" H 5950 5000 50  0001 C CNN
F 3 "" H 5950 5000 50  0001 C CNN
	1    5950 5000
	1    0    0    -1  
$EndComp
Wire Wire Line
	5950 4800 6050 4800
Wire Wire Line
	6050 5000 5950 5000
Wire Wire Line
	5650 4900 6050 4900
Text GLabel 5650 4900 0    50   Input ~ 0
ONE_WIRE_IN
$Comp
L Connector_Generic:Conn_01x03 J10
U 1 1 5FC22E73
P 6250 4900
F 0 "J10" H 6330 4942 50  0000 L CNN
F 1 "PSU_TEMP_SENSOR" H 6330 4851 50  0000 L CNN
F 2 "Connector_JST:JST_XH_B3B-XH-A_1x03_P2.50mm_Vertical" H 6250 4900 50  0001 C CNN
F 3 "~" H 6250 4900 50  0001 C CNN
	1    6250 4900
	1    0    0    -1  
$EndComp
$Comp
L Switch:SW_Push SW3
U 1 1 5FB49E9F
P 3950 1250
F 0 "SW3" H 4000 1550 50  0000 R CNN
F 1 "FLASH" H 4200 1450 50  0000 R CNN
F 2 "Button_Switch_THT:SW_PUSH_6mm_H5mm" H 3950 1450 50  0001 C CNN
F 3 "~" H 3950 1450 50  0001 C CNN
	1    3950 1250
	1    0    0    -1  
$EndComp
$Comp
L power:GND #PWR0103
U 1 1 5FBF606D
P 8950 2450
F 0 "#PWR0103" H 8950 2200 50  0001 C CNN
F 1 "GND" H 8955 2277 50  0000 C CNN
F 2 "" H 8950 2450 50  0001 C CNN
F 3 "" H 8950 2450 50  0001 C CNN
	1    8950 2450
	0    1    1    0   
$EndComp
Wire Wire Line
	9300 2450 8950 2450
$Comp
L Connector_Generic:Conn_01x05 J6
U 1 1 5FC39715
P 9500 2650
F 0 "J6" H 9580 2692 50  0000 L CNN
F 1 "Conn_01x05" H 9580 2601 50  0000 L CNN
F 2 "Connector_JST:JST_XH_B5B-XH-A_1x05_P2.50mm_Vertical" H 9500 2650 50  0001 C CNN
F 3 "~" H 9500 2650 50  0001 C CNN
	1    9500 2650
	1    0    0    -1  
$EndComp
Wire Wire Line
	9300 2750 9150 2750
Wire Wire Line
	9150 2750 9150 3200
Wire Wire Line
	9150 3200 9300 3200
Wire Wire Line
	9300 2850 9250 2850
Wire Wire Line
	9250 2850 9250 3000
Wire Wire Line
	9250 3000 9300 3000
Wire Wire Line
	8600 2150 8600 2550
Wire Wire Line
	8600 2550 9300 2550
Connection ~ 8600 2550
Connection ~ 8650 2650
Wire Wire Line
	6400 2350 6500 2350
Connection ~ 6400 2350
$Comp
L power:PWR_FLAG #FLG0101
U 1 1 603E3CAD
P 6400 2350
F 0 "#FLG0101" H 6400 2425 50  0001 C CNN
F 1 "PWR_FLAG" H 6400 2523 50  0000 C CNN
F 2 "" H 6400 2350 50  0001 C CNN
F 3 "~" H 6400 2350 50  0001 C CNN
	1    6400 2350
	1    0    0    -1  
$EndComp
$Comp
L power:+5V #PWR044
U 1 1 6019C68B
P 6350 2350
F 0 "#PWR044" H 6350 2200 50  0001 C CNN
F 1 "+5V" V 6365 2478 50  0000 L CNN
F 2 "" H 6350 2350 50  0001 C CNN
F 3 "" H 6350 2350 50  0001 C CNN
	1    6350 2350
	0    -1   -1   0   
$EndComp
Wire Wire Line
	6350 2350 6400 2350
Wire Wire Line
	6400 2450 6350 2450
Connection ~ 6400 2450
$Comp
L power:PWR_FLAG #FLG0102
U 1 1 603E48C1
P 6400 2450
F 0 "#FLG0102" H 6400 2525 50  0001 C CNN
F 1 "PWR_FLAG" H 6400 2623 50  0000 C CNN
F 2 "" H 6400 2450 50  0001 C CNN
F 3 "~" H 6400 2450 50  0001 C CNN
	1    6400 2450
	-1   0    0    1   
$EndComp
$Comp
L power:GND #PWR045
U 1 1 601931A7
P 6350 2450
F 0 "#PWR045" H 6350 2200 50  0001 C CNN
F 1 "GND" H 6355 2277 50  0000 C CNN
F 2 "" H 6350 2450 50  0001 C CNN
F 3 "" H 6350 2450 50  0001 C CNN
	1    6350 2450
	0    1    1    0   
$EndComp
Wire Wire Line
	6500 2450 6400 2450
Text GLabel 9300 4450 0    50   Input ~ 0
SDA
Text GLabel 6200 3450 0    50   Input ~ 0
LOGIC_OUT_2
Text GLabel 6200 2850 0    50   Input ~ 0
LOGIC_OUT_0
Text GLabel 1400 7000 3    50   Input ~ 0
EXP_ADDR_1
Text GLabel 1750 7000 3    50   Input ~ 0
EXP_ADDR_0
Text GLabel 3950 3550 0    50   Input ~ 0
EXP_A_3
Text GLabel 3950 3450 0    50   Input ~ 0
EXP_A_0
Wire Wire Line
	9300 2650 8650 2650
Text GLabel 8500 2650 0    50   Input ~ 0
BTN_ANALOG_IN
$EndSCHEMATC
