M48
; DRILL file {KiCad (5.1.7)-1} date 01/25/21 19:25:35
; FORMAT={-:-/ absolute / inch / decimal}
; #@! TF.CreationDate,2021-01-25T19:25:35+01:00
; #@! TF.GenerationSoftware,Kicad,Pcbnew,(5.1.7)-1
; #@! TF.FileFunction,NonPlated,1,2,NPTH
FMAT,2
INCH
T1C0.1260
%
G90
G05
T1
X9.9Y-4.6
X9.9Y-5.05
T0
M30
