EESchema Schematic File Version 4
EELAYER 30 0
EELAYER END
$Descr A4 11693 8268
encoding utf-8
Sheet 1 1
Title ""
Date ""
Rev ""
Comp ""
Comment1 ""
Comment2 ""
Comment3 ""
Comment4 ""
$EndDescr
$Comp
L Connector:Conn_01x02_Female J4
U 1 1 6075F69F
P 8800 2550
F 0 "J4" H 8828 2526 50  0000 L CNN
F 1 "Conn_01x02_Female" H 8828 2435 50  0000 L CNN
F 2 "Connector_JST:JST_XH_S2B-XH-A_1x02_P2.50mm_Horizontal" H 8800 2550 50  0001 C CNN
F 3 "~" H 8800 2550 50  0001 C CNN
	1    8800 2550
	1    0    0    -1  
$EndComp
$Comp
L Connector:Conn_01x05_Female J1
U 1 1 607607FA
P 3850 2800
F 0 "J1" H 3878 2826 50  0000 L CNN
F 1 "Conn_01x05_Female" H 3878 2735 50  0000 L CNN
F 2 "Connector_JST:JST_XH_S5B-XH-A_1x05_P2.50mm_Horizontal" H 3850 2800 50  0001 C CNN
F 3 "~" H 3850 2800 50  0001 C CNN
	1    3850 2800
	1    0    0    -1  
$EndComp
$Comp
L Connector:Conn_01x04_Female J3
U 1 1 607623E5
P 6800 1900
F 0 "J3" H 6828 1876 50  0000 L CNN
F 1 "Conn_01x04_Female" H 6828 1785 50  0000 L CNN
F 2 "Connector_PinSocket_2.54mm:PinSocket_1x04_P2.54mm_Vertical" H 6800 1900 50  0001 C CNN
F 3 "~" H 6800 1900 50  0001 C CNN
	1    6800 1900
	1    0    0    -1  
$EndComp
Text GLabel 8600 2550 0    50   Input ~ 0
PROBE-
$Comp
L power:+5V #PWR08
U 1 1 60765CF1
P 6600 1800
F 0 "#PWR08" H 6600 1650 50  0001 C CNN
F 1 "+5V" H 6615 1973 50  0000 C CNN
F 2 "" H 6600 1800 50  0001 C CNN
F 3 "" H 6600 1800 50  0001 C CNN
	1    6600 1800
	1    0    0    -1  
$EndComp
$Comp
L power:GND #PWR09
U 1 1 60766F50
P 6600 2100
F 0 "#PWR09" H 6600 1850 50  0001 C CNN
F 1 "GND" H 6605 1927 50  0000 C CNN
F 2 "" H 6600 2100 50  0001 C CNN
F 3 "" H 6600 2100 50  0001 C CNN
	1    6600 2100
	1    0    0    -1  
$EndComp
$Comp
L power:GND #PWR07
U 1 1 607671D5
P 5950 4050
F 0 "#PWR07" H 5950 3800 50  0001 C CNN
F 1 "GND" H 5955 3877 50  0000 C CNN
F 2 "" H 5950 4050 50  0001 C CNN
F 3 "" H 5950 4050 50  0001 C CNN
	1    5950 4050
	1    0    0    -1  
$EndComp
$Comp
L power:+5V #PWR012
U 1 1 60768717
P 8600 2650
F 0 "#PWR012" H 8600 2500 50  0001 C CNN
F 1 "+5V" H 8615 2823 50  0000 C CNN
F 2 "" H 8600 2650 50  0001 C CNN
F 3 "" H 8600 2650 50  0001 C CNN
	1    8600 2650
	-1   0    0    1   
$EndComp
$Comp
L Connector:Conn_01x04_Female J2
U 1 1 6075FFE0
P 5000 2000
F 0 "J2" H 5028 1976 50  0000 L CNN
F 1 "Conn_01x04_Female" H 5028 1885 50  0000 L CNN
F 2 "Connector_PinSocket_2.54mm:PinSocket_1x04_P2.54mm_Vertical" H 5000 2000 50  0001 C CNN
F 3 "~" H 5000 2000 50  0001 C CNN
	1    5000 2000
	-1   0    0    1   
$EndComp
Text GLabel 5200 2000 2    50   Input ~ 0
BSDA
Text GLabel 5200 1900 2    50   Input ~ 0
BSCL
$Comp
L power:+3.3V #PWR05
U 1 1 60765693
P 5250 1800
F 0 "#PWR05" H 5250 1650 50  0001 C CNN
F 1 "+3.3V" H 5265 1973 50  0000 C CNN
F 2 "" H 5250 1800 50  0001 C CNN
F 3 "" H 5250 1800 50  0001 C CNN
	1    5250 1800
	1    0    0    -1  
$EndComp
$Comp
L power:GND #PWR04
U 1 1 6076620A
P 5200 2100
F 0 "#PWR04" H 5200 1850 50  0001 C CNN
F 1 "GND" H 5205 1927 50  0000 C CNN
F 2 "" H 5200 2100 50  0001 C CNN
F 3 "" H 5200 2100 50  0001 C CNN
	1    5200 2100
	1    0    0    -1  
$EndComp
$Comp
L Device:R R2
U 1 1 6075DA3F
P 7150 3050
F 0 "R2" V 7150 3050 50  0000 L CNN
F 1 "4.7k" V 7250 2950 50  0000 L CNN
F 2 "Resistor_THT:R_Axial_DIN0207_L6.3mm_D2.5mm_P7.62mm_Horizontal" V 7080 3050 50  0001 C CNN
F 3 "~" H 7150 3050 50  0001 C CNN
	1    7150 3050
	0    -1   -1   0   
$EndComp
Text GLabel 6700 3150 2    50   Input ~ 0
ASDA
Text GLabel 6700 3350 2    50   Input ~ 0
ASCL
$Comp
L Device:R R3
U 1 1 6076DEB4
P 7150 3250
F 0 "R3" V 7150 3250 50  0000 L CNN
F 1 "4.7k" V 7100 3000 50  0000 L CNN
F 2 "Resistor_THT:R_Axial_DIN0207_L6.3mm_D2.5mm_P7.62mm_Horizontal" V 7080 3250 50  0001 C CNN
F 3 "~" H 7150 3250 50  0001 C CNN
	1    7150 3250
	0    -1   -1   0   
$EndComp
$Comp
L MCU_Microchip_ATtiny:ATtiny85-20PU U1
U 1 1 60770825
P 6150 3400
F 0 "U1" H 5621 3446 50  0000 R CNN
F 1 "ATtiny85-20PU" H 5621 3355 50  0000 R CNN
F 2 "Package_DIP:DIP-8_W7.62mm" H 6150 3400 50  0001 C CIN
F 3 "http://ww1.microchip.com/downloads/en/DeviceDoc/atmel-2586-avr-8-bit-microcontroller-attiny25-attiny45-attiny85_datasheet.pdf" H 6150 3400 50  0001 C CNN
	1    6150 3400
	1    0    0    -1  
$EndComp
$Comp
L power:+5V #PWR06
U 1 1 607720CF
P 6150 2750
F 0 "#PWR06" H 6150 2600 50  0001 C CNN
F 1 "+5V" H 6165 2923 50  0000 C CNN
F 2 "" H 6150 2750 50  0001 C CNN
F 3 "" H 6150 2750 50  0001 C CNN
	1    6150 2750
	1    0    0    -1  
$EndComp
Wire Wire Line
	6700 3150 6650 3150
Wire Wire Line
	6550 3350 6650 3350
Wire Wire Line
	7000 3050 6650 3050
Connection ~ 6650 3150
Wire Wire Line
	6650 3150 6550 3150
Wire Wire Line
	7000 3250 6650 3250
Connection ~ 6650 3350
Wire Wire Line
	6650 3350 6700 3350
Wire Wire Line
	7300 3250 7400 3250
Wire Wire Line
	7400 3250 7400 3150
Wire Wire Line
	7400 3050 7300 3050
$Comp
L power:+5V #PWR011
U 1 1 60774A6A
P 7500 3150
F 0 "#PWR011" H 7500 3000 50  0001 C CNN
F 1 "+5V" H 7515 3323 50  0000 C CNN
F 2 "" H 7500 3150 50  0001 C CNN
F 3 "" H 7500 3150 50  0001 C CNN
	1    7500 3150
	1    0    0    -1  
$EndComp
Wire Wire Line
	7500 3150 7400 3150
Connection ~ 7400 3150
Wire Wire Line
	7400 3150 7400 3050
NoConn ~ 6550 3250
NoConn ~ 6550 3650
NoConn ~ 6550 3550
Text GLabel 7250 3450 2    50   Input ~ 0
PROBE-
$Comp
L Device:R R1
U 1 1 60775676
P 7000 3650
F 0 "R1" H 6930 3604 50  0000 R CNN
F 1 "200" H 6930 3695 50  0000 R CNN
F 2 "Resistor_THT:R_Axial_DIN0207_L6.3mm_D2.5mm_P7.62mm_Horizontal" V 6930 3650 50  0001 C CNN
F 3 "~" H 7000 3650 50  0001 C CNN
	1    7000 3650
	-1   0    0    1   
$EndComp
Wire Wire Line
	6550 3450 7000 3450
Wire Wire Line
	7000 3450 7000 3500
Wire Wire Line
	7250 3450 7000 3450
Connection ~ 7000 3450
$Comp
L power:GND #PWR010
U 1 1 6077630B
P 7000 3850
F 0 "#PWR010" H 7000 3600 50  0001 C CNN
F 1 "GND" H 7005 3677 50  0000 C CNN
F 2 "" H 7000 3850 50  0001 C CNN
F 3 "" H 7000 3850 50  0001 C CNN
	1    7000 3850
	1    0    0    -1  
$EndComp
Wire Wire Line
	7000 3800 7000 3850
Text GLabel 6600 1900 0    50   Input ~ 0
ASCL
Text GLabel 6600 2000 0    50   Input ~ 0
ASDA
$Comp
L power:+5V #PWR02
U 1 1 60777963
P 3550 2550
F 0 "#PWR02" H 3550 2400 50  0001 C CNN
F 1 "+5V" H 3565 2723 50  0000 C CNN
F 2 "" H 3550 2550 50  0001 C CNN
F 3 "" H 3550 2550 50  0001 C CNN
	1    3550 2550
	1    0    0    -1  
$EndComp
Text GLabel 3650 2900 0    50   Input ~ 0
BSDA
Text GLabel 3650 2800 0    50   Input ~ 0
BSCL
$Comp
L power:GND #PWR03
U 1 1 607786E6
P 3650 3000
F 0 "#PWR03" H 3650 2750 50  0001 C CNN
F 1 "GND" H 3655 2827 50  0000 C CNN
F 2 "" H 3650 3000 50  0001 C CNN
F 3 "" H 3650 3000 50  0001 C CNN
	1    3650 3000
	1    0    0    -1  
$EndComp
$Comp
L power:+3.3V #PWR01
U 1 1 60779CDD
P 3250 2550
F 0 "#PWR01" H 3250 2400 50  0001 C CNN
F 1 "+3.3V" H 3265 2723 50  0000 C CNN
F 2 "" H 3250 2550 50  0001 C CNN
F 3 "" H 3250 2550 50  0001 C CNN
	1    3250 2550
	1    0    0    -1  
$EndComp
Wire Wire Line
	5250 1800 5200 1800
Wire Wire Line
	3550 2550 3550 2600
Wire Wire Line
	3550 2600 3650 2600
Wire Wire Line
	3650 2700 3250 2700
Wire Wire Line
	3250 2700 3250 2550
$Comp
L power:PWR_FLAG #FLG01
U 1 1 6077E03C
P 3250 2700
F 0 "#FLG01" H 3250 2775 50  0001 C CNN
F 1 "PWR_FLAG" V 3250 2827 50  0000 L CNN
F 2 "" H 3250 2700 50  0001 C CNN
F 3 "~" H 3250 2700 50  0001 C CNN
	1    3250 2700
	0    -1   -1   0   
$EndComp
Connection ~ 3250 2700
$Comp
L power:PWR_FLAG #FLG03
U 1 1 6077F8B2
P 3700 2350
F 0 "#FLG03" H 3700 2425 50  0001 C CNN
F 1 "PWR_FLAG" V 3700 2477 50  0000 L CNN
F 2 "" H 3700 2350 50  0001 C CNN
F 3 "~" H 3700 2350 50  0001 C CNN
	1    3700 2350
	0    1    1    0   
$EndComp
Wire Wire Line
	3700 2350 3700 2500
Wire Wire Line
	3700 2500 3650 2500
Wire Wire Line
	3650 2500 3650 2600
Connection ~ 3650 2600
$Comp
L power:PWR_FLAG #FLG02
U 1 1 6078064A
P 3500 3000
F 0 "#FLG02" H 3500 3075 50  0001 C CNN
F 1 "PWR_FLAG" V 3500 3127 50  0000 L CNN
F 2 "" H 3500 3000 50  0001 C CNN
F 3 "~" H 3500 3000 50  0001 C CNN
	1    3500 3000
	0    -1   -1   0   
$EndComp
Wire Wire Line
	3500 3000 3650 3000
Connection ~ 3650 3000
Wire Wire Line
	6650 3050 6650 3150
Wire Wire Line
	6650 3250 6650 3350
Wire Wire Line
	6150 2800 6150 2750
$EndSCHEMATC
